…
### Inspect


```r
virus
```

```
## # A tibble: 34,747 x 16
##    `Organism Name`     `Organism Groups`    BioSample BioProject Assembly  Level
##    <chr>               <chr>                <lgl>     <chr>      <chr>     <chr>
##  1 White spot syndrom~ Viruses;Other;Nimav~ NA        <NA>       GCA_0008~ Comp~
##  2 Posavirus sp.       Viruses;unclassifie~ NA        <NA>       GCA_0023~ Comp~
##  3 Hepatitis E virus   Viruses;Other;Hepev~ NA        <NA>       GCA_0008~ Comp~
##  4 Heterosigma akashi~ Viruses;Other;Marna~ NA        <NA>       GCA_0008~ Comp~
##  5 Pyrococcus abyssi ~ Viruses;unclassifie~ NA        <NA>       GCA_0008~ Comp~
##  6 Marine RNA virus S~ Viruses;Other;Other  NA        <NA>       GCA_0008~ Comp~
##  7 Tomato marchitez v~ Viruses;Other;Secov~ NA        <NA>       GCA_0008~ Comp~
##  8 Ourmia melon virus  Viruses;Other;Botou~ NA        <NA>       GCA_0008~ Comp~
##  9 Epirus cherry virus Viruses;Other;Botou~ NA        <NA>       GCA_0008~ Comp~
## 10 Vibrio phage dougl~ Viruses;Other;Podov~ NA        PRJNA39215 GCA_0009~ Comp~
## # ... with 34,737 more rows, and 10 more variables: Size(Mb) <dbl>, GC% <dbl>,
## #   Host <chr>, CDS <dbl>, Neighbors <dbl>, Release Date <dttm>,
## #   GenBank FTP <chr>, RefSeq FTP <chr>, Genes <dbl>, Scaffolds <dbl>
```
…
```
## Warning: Expected 3 pieces. Missing pieces filled with `NA` in 28898 rows [1, 2,
## 3, 5, 7, 8, 9, 10, 11, 12, 13, 14, 15, 16, 17, 18, 19, 20, 21, 22, ...].
```

```r
virus_c
```

```
## # A tibble: 34,747 x 18
##    `Organism Name`     `Organism Groups`    BioSample BioProject Assembly  Level
##    <chr>               <chr>                <lgl>     <chr>      <chr>     <chr>
##  1 White spot syndrom~ Viruses;Other;Nimav~ NA        <NA>       GCA_0008~ Comp~
##  2 Posavirus sp.       Viruses;unclassifie~ NA        <NA>       GCA_0023~ Comp~
##  3 Hepatitis E virus   Viruses;Other;Hepev~ NA        <NA>       GCA_0008~ Comp~
##  4 Heterosigma akashi~ Viruses;Other;Marna~ NA        <NA>       GCA_0008~ Comp~
##  5 Pyrococcus abyssi ~ Viruses;unclassifie~ NA        <NA>       GCA_0008~ Comp~
##  6 Marine RNA virus S~ Viruses;Other;Other  NA        <NA>       GCA_0008~ Comp~
##  7 Tomato marchitez v~ Viruses;Other;Secov~ NA        <NA>       GCA_0008~ Comp~
##  8 Ourmia melon virus  Viruses;Other;Botou~ NA        <NA>       GCA_0008~ Comp~
##  9 Epirus cherry virus Viruses;Other;Botou~ NA        <NA>       GCA_0008~ Comp~
## 10 Vibrio phage dougl~ Viruses;Other;Podov~ NA        PRJNA39215 GCA_0009~ Comp~
## # ... with 34,737 more rows, and 12 more variables: Size(Mb) <dbl>, GC% <dbl>,
## #   host_type_1 <chr>, host_type_2 <chr>, host_type_3 <chr>, CDS <dbl>,
## #   Neighbors <dbl>, Release Date <dttm>, GenBank FTP <chr>, RefSeq FTP <chr>,
## #   Genes <dbl>, Scaffolds <dbl>
```
…
```
## [1] "human"         "invertebrates" "vertebrates"
```

```r
virus_clong<-virus_c%>%
  pivot_longer(host_type_1:host_type_3,
               names_to="host_num",
               values_to="host_type",
               values_drop_na=T)
virus_clong
```

```
## # A tibble: 42,108 x 17
##    `Organism Name`   `Organism Groups`     BioSample BioProject Assembly   Level
##    <chr>             <chr>                 <lgl>     <chr>      <chr>      <chr>
##  1 White spot syndr~ Viruses;Other;Nimavi~ NA        <NA>       GCA_00084~ Comp~
##  2 Posavirus sp.     Viruses;unclassified~ NA        <NA>       GCA_00237~ Comp~
##  3 Hepatitis E virus Viruses;Other;Hepevi~ NA        <NA>       GCA_00086~ Comp~
##  4 Hepatitis E virus Viruses;Other;Hepevi~ NA        <NA>       GCA_00086~ Comp~
##  5 Pyrococcus abyss~ Viruses;unclassified~ NA        <NA>       GCA_00087~ Comp~
##  6 Tomato marchitez~ Viruses;Other;Secovi~ NA        <NA>       GCA_00087~ Comp~
##  7 Ourmia melon vir~ Viruses;Other;Botour~ NA        <NA>       GCA_00087~ Comp~
##  8 Epirus cherry vi~ Viruses;Other;Botour~ NA        <NA>       GCA_00087~ Comp~
##  9 Vibrio phage dou~ Viruses;Other;Podovi~ NA        PRJNA39215 GCA_00090~ Comp~
## 10 Vibrio phage hel~ Viruses;Other;Myovir~ NA        PRJNA39217 GCA_00090~ Comp~
## # ... with 42,098 more rows, and 11 more variables: Size(Mb) <dbl>, GC% <dbl>,
## #   CDS <dbl>, Neighbors <dbl>, Release Date <dttm>, GenBank FTP <chr>,
## #   RefSeq FTP <chr>, Genes <dbl>, Scaffolds <dbl>, host_num <chr>,
## #   host_type <fct>
```
### Filter for only Complete Genome data, separate Organism Groups into difft columns, reorder, rename


```r
virus_clean<-virus_clong%>%
  separate('Organism Groups', into=c("domain", "kingdom", "subgroup"), sep=";")%>%
  filter(Level=="Complete" & (host_type=="human" | host_type=="land plants"))%>%
  select('host_type', 'Organism Name', 'kingdom','subgroup', 'Size(Mb)', 'GC%', 'Genes','Level')%>%
  rename(organism_name='Organism Name', kingdom=kingdom, subgroup=subgroup, level="Level", size_mb='Size(Mb)', perc_gc='GC%', host=host_type, genes_num='Genes')%>%
  arrange(host)
virus_clean
```

```
## # A tibble: 11,871 x 8
##    host  organism_name      kingdom subgroup    size_mb perc_gc genes_num level 
##    <fct> <chr>              <chr>   <chr>         <dbl>   <dbl>     <dbl> <chr> 
##  1 human Hepatitis E virus  Other   Hepeviridae 0.00718    57.9         3 Compl~
##  2 human Salivirus NG-J1    Other   Picornavir~ 0.00798    56.7         1 Compl~
##  3 human Astrovirus VA1     Other   Astrovirid~ 0.00659    41.9         3 Compl~
##  4 human Pseudocowpox virus Other   Poxviridae  0.145      65         134 Compl~
##  5 human Torque teno mini ~ Other   Anelloviri~ 0.00291    37.8         2 Compl~
##  6 human Torque teno virus~ Other   Anelloviri~ 0.00373    53.4         4 Compl~
##  7 human Torque teno virus~ Other   Anelloviri~ 0.00377    51.2         4 Compl~
##  8 human Torque teno virus~ Other   Anelloviri~ 0.00374    48.4         3 Compl~
##  9 human Torque teno virus~ Other   Anelloviri~ 0.00375    51.4         6 Compl~
## 10 human Torque teno virus~ Other   Anelloviri~ 0.00376    53.8         3 Compl~
## # ... with 11,861 more rows
```
…
